[
	{
		"name": "post 1",
		"review": "this is a review",
		"image:": "image url",
		"grupo": 1
	},
	{
		"name": "post 2",
		"grupo": 1
	},
	{
		"name": "sdfsfd",
		"grupo": 2
	},
	{
		"name": "hey router"
	},
	{
		"name": "hey router"
	},
	{
		"name": "sdfsdf"
	},
	{
		"name": "sdfsdf"
	},
	{
		"name": "hey"
	},
	{
		"name": "hey"
	},
	{
		"name": "hey"
	},
	{
		"name": "hey"
	},
	{
		"name": "hey"
	},
	{
		"name": "hey"
	},
	{
		"name": "hey"
	},
	{
		"name": "hey"
	},
	{
		"name": "test"
	},
	{
		"name": "test2 "
	},
	{
		"name": "lsjdfsfd"
	},
	{
		"name": "sdffsdf324"
	},
	{
		"name": "sdffsdf324"
	},
	{
		"name": "sdffsdf324"
	},
	{
		"name": "sdffsdf324"
	},
	{
		"name": "sdff"
	},
	{
		"name": "123312"
	},
	{
		"name": "123312"
	},
	{
		"name": "123312"
	},
	{
		"name": "123312"
	},
	{
		"name": "123312"
	},
	{
		"name": "123312"
	},
	{
		"name": "123312"
	},
	{
		"name": "123312"
	},
	{
		"name": "123312"
	},
	{
		"name": "123312"
	},
	{
		"name": "123312"
	},
	{
		"name": "123312"
	},
	{
		"name": "123312"
	},
	{
		"name": "123312"
	},
	{
		"name": "123312"
	},
	{
		"name": "123312"
	},
	{
		"name": "123312"
	}
]